…
``` r
library(openxlsx)
```

# lab list

``` r
tibble(
    files = list.files("./data/data_from_M/phoenix/"),
    path = str_c("./data/data_from_M/phoenix/", files)
  )
```

    ## # A tibble: 47 × 2
    ##    files                              path                                      
    ##    <chr>                              <chr>                                     
    ##  1 SV 1-37 Forrest Street.xlsx        ./data/data_from_M/phoenix/SV 1-37 Forres…
    ##  2 SV 1026-1030 Manhattan Ave.xlsx    ./data/data_from_M/phoenix/SV 1026-1030 M…
    ##  3 SV 1048 Manhattan Ave.xlsx         ./data/data_from_M/phoenix/SV 1048 Manhat…
    ##  4 SV 1050-1066 Manhattan Avenue.xlsx ./data/data_from_M/phoenix/SV 1050-1066 M…
    ##  5 SV 1068-1072 Fulton Street.xlsx    ./data/data_from_M/phoenix/SV 1068-1072 F…
    ##  6 SV 1096 Broadway.xlsx              ./data/data_from_M/phoenix/SV 1096 Broadw…
    ##  7 SV 113 Hamilton Ave.xlsx           ./data/data_from_M/phoenix/SV 113 Hamilto…
    ##  8 SV 1146 Fulton Street.xlsx         ./data/data_from_M/phoenix/SV 1146 Fulton…
    ##  9 SV 125 Borinquen Place.xlsx        ./data/data_from_M/phoenix/SV 125 Borinqu…
    ## 10 SV 1353 Flatbush Avenue.xlsx       ./data/data_from_M/phoenix/SV 1353 Flatbu…
    ## # … with 37 more rows
…
