…
df[1,c(3:11)] <- as.list(paste(df[1,c(3:11)], df[2,c(3:11)]))
df[-2,]
```

    ## # A tibble: 28 × 13
    ##    chemical  clien…¹ a     b     c     `3`   `4`   `5`   d     e     f       `7`
    ##    <chr>     <chr>   <chr> <chr> <chr> <chr> <chr> <chr> <chr> <chr> <chr> <int>
    ##  1 ""        18SV2   "ppb… ppbv… LOD/… "ug/… "ug/… "LOD… " Da… NA By NA D…    NA
    ##  2 "Volatil… 18SV2   ""    <NA>  <NA>  ""    ""    ""    ""    <NA>  <NA>     NA
    ##  3 "1,1,1,2… 18SV2   "ND"  0.146 0.146 "ND"  "1.0… "1.0… "11/… KCA   1         1
    ##  4 "1,1,1-T… 18SV2   "ND"  0.183 0.183 "ND"  "1.0… "1.0… "11/… KCA   1        NA
    ##  5 "1,1,2,2… 18SV2   "ND"  0.146 0.146 "ND"  "1.0… "1.0… "11/… KCA   1        NA
    ##  6 "1,1,2-T… 18SV2   "ND"  0.183 0.183 "ND"  "1.0… "1.0… "11/… KCA   1        NA
    ##  7 "1,1-Dic… 18SV2   "ND"  0.247 0.247 "ND"  "1.0… "1.0… "11/… KCA   1        NA
    ##  8 "1,1-Dic… 18SV2   "ND"  0.051 0.051 "ND"  "0.2… "0.2… "11/… KCA   1        NA
    ##  9 "1,2,4-T… 18SV2   "0.2… 0.135 0.135 "2.0… "1.0… "1.0… "11/… KCA   1        NA
    ## 10 "1,2,4-T… 18SV2   "0.9… 0.204 0.204 "4.7… "1.0… "1.0… "11/… KCA   1        NA
    ## # … with 18 more rows, 1 more variable: street_address <chr>, and abbreviated
    ## #   variable name ¹​client_sample_id
…
## Second Type - Without Text on Top

``` r
df_cont = soil_vapor[[2]] %>%
  as_tibble() %>% 
  select(-X.4)

df_cont = setNames(rbind(names(df_cont), df_cont), names(df_cont))

df_cont[1,c(2:10)] <- as.list(paste(df_cont[1,c(2:10)], df_cont[2,c(2:10)]))
df_cont[-2,]
```

    ## # A tibble: 43 × 10
    ##    X                   ppbv  ppbv.1 LOD.  ug.m3 ug.m3.1 LOD..1 X.1   X.2   X.3  
    ##    <chr>               <chr> <chr>  <chr> <chr> <chr>   <chr>  <chr> <chr> <chr>
    ##  1 X                   ppbv… ppbv.… LOD.… ug.m… ug.m3.… LOD..… X.1 … X.2 … X.3 …
    ##  2 Bromodichlorometha… ND    0.149  0.149 ND    1.00    1.00   11/0… KCA   1    
    ##  3 Bromoform           ND    0.097  0.097 ND    1.00    1.00   11/0… KCA   1    
    ##  4 Bromomethane        ND    0.258  0.258 ND    1.00    1.00   11/0… KCA   1    
    ##  5 Carbon Disulfide    0.492 0.321  0.321 1.53  1.00    1.00   11/0… KCA   1    
    ##  6 Carbon Tetrachlori… 0.038 0.032  0.032 0.24  0.20    0.20   11/0… KCA   1    
    ##  7 Chlorobenzene       ND    0.217  0.217 ND    1.00    1.00   11/0… KCA   1    
    ##  8 Chloroethane        ND    0.379  0.379 ND    1.00    1.00   11/0… KCA   1    
    ##  9 Chloroform          9.99  0.205  0.205 48.7  1.00    1.00   11/0… KCA   1    
    ## 10 Chloromethane       ND    0.485  0.485 ND    1.00    1.00   11/0… KCA   1    
    ## # … with 33 more rows
…
